{
	"http": {
		"devPort": 8080,
		"port": 3000
	},
	"database": {
		"postgres": {
			"host": "localhost",
			"port": 5432,
			"user": "",
			"password": "",
			"database": ""
		}
	},
	"encryption": {
		"secret": "FfaX88ffSz7kUl9j"
	}
}